%YAML 1.1
%TAG !u! tag:unity3d.com,2011:
--- !u!78 &1
TagManager:
  serializedVersion: 2
  tags:
  - Shootable
  - Floor
  - Zombie
  - Ammo
  - Boss
  - Health
  layers:
  - Default
  - TransparentFX
  - Ignore Raycast
  - 
  - Water
  - UI
  - 
  - 
  - Lighting
  - Ground
  - Postprocessing
  - Shootable
  - Floor
  - 
  - 
  - 
  - 
  - 
  - 
  - 
  - 
  - 
  - 
  - 
  - 
  - 
  - 
  - 
  - 
  - 
  - 
  - 
  m_SortingLayers:
  - name: Fire
    uniqueID: 3804908061
    locked: 0
  - name: Default
    uniqueID: 0
    locked: 0
